[
  {
    "id": "6e2c22fe-48d0-4298-930a-aa7bf0becaff",
    "join_id_ssi": "id-6e2c22fe-48d0-4298-930a-aa7bf0becaff",
    "created_at_dtsi": "2019-12-09T05:13:48Z",
    "updated_at_dtsi": "2024-10-08T13:00:25.117Z",
    "internal_resource_tsim": [
      "Ddr::Item"
    ],
    "internal_resource_ssim": [
      "Ddr::Item"
    ],
    "internal_resource_tesim": [
      "Ddr::Item"
    ],
    "display_format_tsim": [
      "image"
    ],
    "display_format_ssim": [
      "image"
    ],
    "display_format_tesim": [
      "image"
    ],
    "display_format_tsi": "image",
    "display_format_ssi": "image",
    "display_format_tesi": "image",
    "fcrepo3_pid_tsim": [
      "duke:336658"
    ],
    "fcrepo3_pid_ssim": [
      "duke:336658"
    ],
    "fcrepo3_pid_tesim": [
      "duke:336658"
    ],
    "fcrepo3_pid_tsi": "duke:336658",
    "fcrepo3_pid_ssi": "duke:336658",
    "fcrepo3_pid_tesi": "duke:336658",
    "ingestion_date_tsim": [
      "datetime-2016-05-13T01:19:04.465+00:00"
    ],
    "ingestion_date_ssim": [
      "datetime-2016-05-13T01:19:04.465+00:00"
    ],
    "ingestion_date_tesim": [
      "datetime-2016-05-13T01:19:04.465+00:00"
    ],
    "ingestion_date_tsi": "datetime-2016-05-13T01:19:04.465+00:00",
    "ingestion_date_ssi": "datetime-2016-05-13T01:19:04.465+00:00",
    "ingestion_date_tesi": "datetime-2016-05-13T01:19:04.465+00:00",
    "local_id_tsim": [
      "TV0422"
    ],
    "local_id_ssim": [
      "TV0422"
    ],
    "local_id_tesim": [
      "TV0422"
    ],
    "local_id_tsi": "TV0422",
    "local_id_ssi": "TV0422",
    "local_id_tesi": "TV0422",
    "permanent_id_tsim": [
      "ark:/87924/r4p26qr75"
    ],
    "permanent_id_ssim": [
      "ark:/87924/r4p26qr75"
    ],
    "permanent_id_tesim": [
      "ark:/87924/r4p26qr75"
    ],
    "permanent_id_tsi": "ark:/87924/r4p26qr75",
    "permanent_id_ssi": "ark:/87924/r4p26qr75",
    "permanent_id_tesi": "ark:/87924/r4p26qr75",
    "permanent_url_tsim": [
      "https://idn.duke.edu/ark:/87924/r4p26qr75"
    ],
    "permanent_url_ssim": [
      "https://idn.duke.edu/ark:/87924/r4p26qr75"
    ],
    "permanent_url_tesim": [
      "https://idn.duke.edu/ark:/87924/r4p26qr75"
    ],
    "permanent_url_tsi": "https://idn.duke.edu/ark:/87924/r4p26qr75",
    "permanent_url_ssi": "https://idn.duke.edu/ark:/87924/r4p26qr75",
    "permanent_url_tesi": "https://idn.duke.edu/ark:/87924/r4p26qr75",
    "rights_note_tsim": [
      "This material is made available for research, scholarship, and private study. Copyright in this material has not been transferred to Duke University. For reuses of this material beyond those permitted by fair use or otherwise allowed under the Copyright Act, please see our page on copyright and citations: https://library.duke.edu/rubenstein/research/citations-and-permissions."
    ],
    "rights_note_ssim": [
      "This material is made available for research, scholarship, and private study. Copyright in this material has not been transferred to Duke University. For reuses of this material beyond those permitted by fair use or otherwise allowed under the Copyright Act, please see our page on copyright and citations: https://library.duke.edu/rubenstein/research/citations-and-permissions."
    ],
    "rights_note_tesim": [
      "This material is made available for research, scholarship, and private study. Copyright in this material has not been transferred to Duke University. For reuses of this material beyond those permitted by fair use or otherwise allowed under the Copyright Act, please see our page on copyright and citations: https://library.duke.edu/rubenstein/research/citations-and-permissions."
    ],
    "rights_note_tsi": "This material is made available for research, scholarship, and private study. Copyright in this material has not been transferred to Duke University. For reuses of this material beyond those permitted by fair use or otherwise allowed under the Copyright Act, please see our page on copyright and citations: https://library.duke.edu/rubenstein/research/citations-and-permissions.",
    "rights_note_ssi": "This material is made available for research, scholarship, and private study. Copyright in this material has not been transferred to Duke University. For reuses of this material beyond those permitted by fair use or otherwise allowed under the Copyright Act, please see our page on copyright and citations: https://library.duke.edu/rubenstein/research/citations-and-permissions.",
    "rights_note_tesi": "This material is made available for research, scholarship, and private study. Copyright in this material has not been transferred to Duke University. For reuses of this material beyond those permitted by fair use or otherwise allowed under the Copyright Act, please see our page on copyright and citations: https://library.duke.edu/rubenstein/research/citations-and-permissions.",
    "workflow_state_tsim": [
      "published"
    ],
    "workflow_state_ssim": [
      "published"
    ],
    "workflow_state_tesim": [
      "published"
    ],
    "workflow_state_tsi": "published",
    "workflow_state_ssi": "published",
    "workflow_state_tesi": "published",
    "category_tsim": [
      "Television (1939-1957)"
    ],
    "category_ssim": [
      "Television (1939-1957)"
    ],
    "category_tesim": [
      "Television (1939-1957)"
    ],
    "category_tsi": "Television (1939-1957)",
    "category_ssi": "Television (1939-1957)",
    "category_tesi": "Television (1939-1957)",
    "company_tsim": [
      "National Broadcasting Company"
    ],
    "company_ssim": [
      "National Broadcasting Company"
    ],
    "company_tesim": [
      "National Broadcasting Company"
    ],
    "company_tsi": "National Broadcasting Company",
    "company_ssi": "National Broadcasting Company",
    "company_tesi": "National Broadcasting Company",
    "date_tsim": [
      "1956"
    ],
    "date_ssim": [
      "1956"
    ],
    "date_tesim": [
      "1956"
    ],
    "date_tsi": "1956",
    "date_ssi": "1956",
    "date_tesi": "1956",
    "description_tsim": [
      "NBC weekly shows in October 1956"
    ],
    "description_ssim": [
      "NBC weekly shows in October 1956"
    ],
    "description_tesim": [
      "NBC weekly shows in October 1956"
    ],
    "description_tsi": "NBC weekly shows in October 1956",
    "description_ssi": "NBC weekly shows in October 1956",
    "description_tesi": "NBC weekly shows in October 1956",
    "extent_tsim": [
      "36 x 27 cm."
    ],
    "extent_ssim": [
      "36 x 27 cm."
    ],
    "extent_tesim": [
      "36 x 27 cm."
    ],
    "extent_tsi": "36 x 27 cm.",
    "extent_ssi": "36 x 27 cm.",
    "extent_tesi": "36 x 27 cm.",
    "format_tsim": [
      "advertisements"
    ],
    "format_ssim": [
      "advertisements"
    ],
    "format_tesim": [
      "advertisements"
    ],
    "format_tsi": "advertisements",
    "format_ssi": "advertisements",
    "format_tesi": "advertisements",
    "headline_tsim": [
      "Open before Christmas! here's why: there's so much going on in NBC BIG COLOR TV... every night!"
    ],
    "headline_ssim": [
      "Open before Christmas! here's why: there's so much going on in NBC BIG COLOR TV... every night!"
    ],
    "headline_tesim": [
      "Open before Christmas! here's why: there's so much going on in NBC BIG COLOR TV... every night!"
    ],
    "headline_tsi": "Open before Christmas! here's why: there's so much going on in NBC BIG COLOR TV... every night!",
    "headline_ssi": "Open before Christmas! here's why: there's so much going on in NBC BIG COLOR TV... every night!",
    "headline_tesi": "Open before Christmas! here's why: there's so much going on in NBC BIG COLOR TV... every night!",
    "medium_tsim": [
      "magazines (periodicals)"
    ],
    "medium_ssim": [
      "magazines (periodicals)"
    ],
    "medium_tesim": [
      "magazines (periodicals)"
    ],
    "medium_tsi": "magazines (periodicals)",
    "medium_ssi": "magazines (periodicals)",
    "medium_tesi": "magazines (periodicals)",
    "product_tsim": [
      "Color Television"
    ],
    "product_ssim": [
      "Color Television"
    ],
    "product_tesim": [
      "Color Television"
    ],
    "product_tsi": "Color Television",
    "product_ssi": "Color Television",
    "product_tesi": "Color Television",
    "publication_tsim": [
      "Life"
    ],
    "publication_ssim": [
      "Life"
    ],
    "publication_tesim": [
      "Life"
    ],
    "publication_tsi": "Life",
    "publication_ssi": "Life",
    "publication_tesi": "Life",
    "rights_tsim": [
      "http://rightsstatements.org/vocab/InC/1.0/"
    ],
    "rights_ssim": [
      "http://rightsstatements.org/vocab/InC/1.0/"
    ],
    "rights_tesim": [
      "http://rightsstatements.org/vocab/InC/1.0/"
    ],
    "rights_tsi": "http://rightsstatements.org/vocab/InC/1.0/",
    "rights_ssi": "http://rightsstatements.org/vocab/InC/1.0/",
    "rights_tesi": "http://rightsstatements.org/vocab/InC/1.0/",
    "subject_tsim": [
      "Children",
      "Television Programs",
      "Various",
      "Television",
      "Broadcast Companies"
    ],
    "subject_ssim": [
      "Children",
      "Television Programs",
      "Various",
      "Television",
      "Broadcast Companies"
    ],
    "subject_tesim": [
      "Children",
      "Television Programs",
      "Various",
      "Television",
      "Broadcast Companies"
    ],
    "title_tsim": [
      "Open before Christmas! here's why: there's so much going on in NBC BIG COLOR TV... every night!"
    ],
    "title_ssim": [
      "Open before Christmas! here's why: there's so much going on in NBC BIG COLOR TV... every night!"
    ],
    "title_tesim": [
      "Open before Christmas! here's why: there's so much going on in NBC BIG COLOR TV... every night!"
    ],
    "title_tsi": "Open before Christmas! here's why: there's so much going on in NBC BIG COLOR TV... every night!",
    "title_ssi": "Open before Christmas! here's why: there's so much going on in NBC BIG COLOR TV... every night!",
    "title_tesi": "Open before Christmas! here's why: there's so much going on in NBC BIG COLOR TV... every night!",
    "type_tsim": [
      "Still Image"
    ],
    "type_ssim": [
      "Still Image"
    ],
    "type_tesim": [
      "Still Image"
    ],
    "type_tsi": "Still Image",
    "type_ssi": "Still Image",
    "type_tesi": "Still Image",
    "admin_policy_id_tsim": [
      "id-c1ebafc5-946e-405a-a7a7-27d39b3fd9bb"
    ],
    "admin_policy_id_ssim": [
      "id-c1ebafc5-946e-405a-a7a7-27d39b3fd9bb"
    ],
    "admin_policy_id_tesim": [
      "id-c1ebafc5-946e-405a-a7a7-27d39b3fd9bb"
    ],
    "admin_policy_id_tsi": "id-c1ebafc5-946e-405a-a7a7-27d39b3fd9bb",
    "admin_policy_id_ssi": "id-c1ebafc5-946e-405a-a7a7-27d39b3fd9bb",
    "admin_policy_id_tesi": "id-c1ebafc5-946e-405a-a7a7-27d39b3fd9bb",
    "thumbnail_tsim": [
      "serialized-{\"id\":null,\"internal_resource\":\"Ddr::File\",\"created_at\":null,\"updated_at\":null,\"new_record\":true,\"digest\":[{\"id\":null,\"internal_resource\":\"Ddr::Digest\",\"created_at\":null,\"updated_at\":null,\"new_record\":true,\"type\":\"SHA1\",\"value\":\"eebec70cc1d99a0b8ed8bbed40cd4713c8f20eb3\"}],\"file_identifier\":{\"id\":\"disk:///opt/app-root/spec/fixtures/files/images/e3782b82-6844-483c-be00-b5a97212ced0_thumbnail.png\"},\"media_type\":\"application/octet-stream\",\"original_filename\":\"7d510d89-fd88-4127-b9ad-78638b1e6dd7\"}"
    ],
    "iiif_file_tsim": [
	"serialized-{\"id\":null,\"internal_resource\":\"Ddr::File\",\"created_at\":null,\"updated_at\":null,\"new_record\":true,\"digest\":[{\"id\":null,\"internal_resource\":\"Ddr::Digest\",\"created_at\":null,\"updated_at\":null,\"new_record\":true,\"type\":\"SHA1\",\"value\":\"955fa414d3702b3c0748b0b4b2bd73c53feed238\"}],\"file_identifier\":{\"id\":\"disk:///opt/app-root/spec/fixtures/files/iiif/presentation/TV0422.json\"},\"media_type\":\"application/json\",\"original_filename\":\"BH0904.json\"}"
    ],
    "parent_id_tsim": [
      "id-c1ebafc5-946e-405a-a7a7-27d39b3fd9bb"
    ],
    "parent_id_ssim": [
      "id-c1ebafc5-946e-405a-a7a7-27d39b3fd9bb"
    ],
    "parent_id_tesim": [
      "id-c1ebafc5-946e-405a-a7a7-27d39b3fd9bb"
    ],
    "parent_id_tsi": "id-c1ebafc5-946e-405a-a7a7-27d39b3fd9bb",
    "parent_id_ssi": "id-c1ebafc5-946e-405a-a7a7-27d39b3fd9bb",
    "parent_id_tesi": "id-c1ebafc5-946e-405a-a7a7-27d39b3fd9bb",
    "struct_metadata_tsim": [
      "serialized-{\"id\":null,\"internal_resource\":\"Ddr::File\",\"created_at\":null,\"updated_at\":null,\"new_record\":true,\"digest\":[{\"id\":null,\"internal_resource\":\"Ddr::Digest\",\"created_at\":null,\"updated_at\":null,\"new_record\":true,\"type\":\"SHA1\",\"value\":\"b84a93fcfed4319f215ee961c05db4d1c5867978\"}],\"file_identifier\":{\"id\":\"disk:///nas/ddr/storage/55/bf/89/55bf8948-daae-4e8f-929e-58a8c6638313\"},\"media_type\":\"application/xml\",\"original_filename\":\"6e2c22fe-48d0-4298-930a-aa7bf0becaff_struct_metadata20230508-1-1elb5fk\"}"
    ],
    "access_role_ssi": "[]",
    "admin_set_title_ssi": "Digital Collections",
    "attached_files_having_content_ssim": [
      "struct_metadata",
      "thumbnail"
    ],
    "collection_title_ssi": "Ad*Access",
    "common_model_name_ssi": "Item",
    "effective_role_ssim": [
      "am272@duke.edu",
      "jvreid@duke.edu",
      "jl249@duke.edu",
      "public",
      "duke:policies:duke-digital-repository:rubenstein_staff",
      "duke:policies:duke-digital-repository:curators",
      "duke:policies:duke-digital-repository:dc_program"
    ],
    "effective_read_ssim": [
      "am272@duke.edu",
      "jvreid@duke.edu",
      "jl249@duke.edu",
      "public",
      "duke:policies:duke-digital-repository:rubenstein_staff",
      "duke:policies:duke-digital-repository:curators",
      "duke:policies:duke-digital-repository:dc_program"
    ],
    "effective_download_ssim": [
      "am272@duke.edu",
      "jvreid@duke.edu",
      "jl249@duke.edu",
      "duke:policies:duke-digital-repository:rubenstein_staff",
      "duke:policies:duke-digital-repository:curators",
      "duke:policies:duke-digital-repository:dc_program"
    ],
    "identifier_all_ssim": [
      "duke:336658",
      "TV0422",
      "ark:/87924/r4p26qr75",
      "6e2c22fe-48d0-4298-930a-aa7bf0becaff"
    ],
    "ingestion_date_dtsi": "2016-05-13T01:19:04Z",
    "last_fixity_check_on_dtsi": "2024-09-06T20:15:40Z",
    "last_fixity_check_outcome_ssim": [
      "success"
    ],
    "structure_ss": "{\"default\":{\"type\":\"default\",\"contents\":[{\"type\":\"Images\",\"contents\":[{\"order\":\"1\",\"contents\":[{\"repo_id\":\"e3782b82-6844-483c-be00-b5a97212ced0\"}]},{\"order\":\"2\",\"contents\":[{\"repo_id\":\"db02075e-5bc1-4d9d-8045-7a972973bcf6\"}]}]}]}}",
    "structure_source_ssi": "repository",
    "is_member_of_collection_ssim": [
      "c1ebafc5-946e-405a-a7a7-27d39b3fd9bb"
    ],
    "timestamp": "2024-10-08T13:00:27.502Z"
  }
]
