[
  {
    "id": "abcd0003-0000-0000-0000-000000000000",
    "join_id_ssi": "id-abcd0003-0000-0000-0000-000000000000",
    "created_at_dtsi": "2022-10-25T00:00:00Z",
    "internal_resource_ssim": [
      "Ddr::Component"
    ],
    "admin_policy_id_ssim": [
      "id-abcd0001-0000-0000-0000-000000000000"
    ],
    "admin_policy_id_ssi": "id-abcd0001-0000-0000-0000-000000000000",
    "local_id_ssim": [
      "0003-dc-component-basic"
    ],
    "local_id_ssi": "test-component-0003",
    "workflow_state_ssi": "published",
    "content_tsim": [
      "serialized-{\"id\":null,\"internal_resource\":\"Ddr::File\",\"created_at\":null,\"updated_at\":null,\"new_record\":true,\"digest\":[{\"id\":null,\"internal_resource\":\"Ddr::Digest\",\"created_at\":null,\"updated_at\":null,\"new_record\":true,\"type\":\"SHA1\",\"value\":\"b16732d59b79d6db323ba2551d112ba87615b1b7\"}],\"file_identifier\":{\"id\":\"/spec/fixtures/files/text/sample_file.txt\"},\"media_type\":\"text/plain\",\"original_filename\":\"sample_file.txt\",\"real_original_filename\":\"sample_file.txt\"}"
    ],
    "parent_id_tsim": [
      "id-abcd0002-0000-0000-0000-000000000000"
    ],
    "parent_id_ssim": [
      "id-abcd0002-0000-0000-0000-000000000000"
    ],
    "parent_id_ssi": "id-abcd0002-0000-0000-0000-000000000000",
    "access_role_ssi": "[]",
    "admin_set_title_ssi": "Digital Collections",
    "attached_files_having_content_ssim": [
      "content"
    ],
    "collection_title_ssi": "Test DC Collection 0001",
    "common_model_name_ssi": "Component",
    "effective_role_ssim": [
      "public"
    ],
    "effective_read_ssim": [
      "public"
    ],
    "effective_download_ssim": [
      "public"
    ],
    "identifier_all_ssim": [
      "0003-dc-component-basic",
      "abcd0003-0000-0000-0000-000000000000"
    ],
    "title_ssi": "Test DC Component 0003",
    "description_tsim": [
      "A generic test component in the DC admin set."
    ],
    "content_size_human_ssim": [
      "1.0 KB"
    ],
    "content_media_type_ssim": [
      "text/plain"
    ],
    "original_filename_ssi": "Test File.txt",
    "collection_id_ssim": [
      "abcd0001-0000-0000-0000-000000000000"
    ],
    "is_part_of_ssim": [
      "abcd0002-0000-0000-0000-000000000000"
    ]
  }
]
