[
  {
    "id": "abcd0001-0000-0000-0000-000000000000",
    "join_id_ssi": "id-abcd0001-0000-0000-0000-000000000000",
    "created_at_dtsi": "2022-10-25T00:00:00Z",
    "internal_resource_ssim": [
      "Ddr::Collection"
    ],
    "title_ssi": "Test DC Collection 0001",
    "description_tsim": [
      "A generic test collection (unconfigured) in the DC admin set."
    ],
    "access_role_tsim": [
      "serialized-{\"id\":null,\"internal_resource\":\"Ddr::Auth::Roles::Role\",\"created_at\":null,\"updated_at\":null,\"new_record\":true,\"agent\":\"public\",\"role_type\":\"Downloader\",\"scope\":\"policy\"}"
    ],
    "access_role_ssi": "[{\"id\":null,\"internal_resource\":\"Ddr::Auth::Roles::Role\",\"created_at\":null,\"updated_at\":null,\"new_record\":true,\"agent\":\"public\",\"role_type\":\"Downloader\",\"scope\":\"policy\"}]",
    "admin_set_ssi": "dc",
    "local_id_ssi": "0001-dc-collection-basic",
    "permanent_id_ssi": "ark:/99999/fk4aa0001",
    "research_help_contact_ssi": "uarchives",
    "bibsys_id_ssi": "006296494",
    "workflow_state_ssi": "published",
    "admin_set_title_ssi": "Digital Collections",
    "collection_title_ssi": "Test DC Collection 0001",
    "common_model_name_ssi": "Collection",
    "effective_role_ssim": [
      "public"
    ],
    "effective_read_ssim": [
      "public"
    ],
    "effective_download_ssim": [
      "public"
    ],
    "identifier_all_ssim": [
      "0001-dc-collection-basic",
      "abcd0001-0000-0000-0000-000000000000",
      "ark:/99999/fk4aa0001"
    ],
    "policy_role_ssim": [
      "public"
    ],
    "structure_ss": "{\"default\":{\"type\":\"default\",\"contents\":[{\"order\":\"1\",\"contents\":[{\"repo_id\":\"abcd0002-0000-0000-0000-000000000000\"}]}]}}",
    "structure_source_ssi": "repository"
  }
]
